{
  "parent": "block/cube_bottom_top",
  "textures": {
    "top": "automated_crafting:block/auto_crafter_top",
    "bottom": "automated_crafting:block/auto_crafter_top",
    "side": "automated_crafting:block/auto_crafter_side"
  }
}